\relax 
\providecommand\hyper@newdestlabel[2]{}
\providecommand\HyperFirstAtBeginDocument{\AtBeginDocument}
\HyperFirstAtBeginDocument{\ifx\hyper@anchor\@undefined
\global\let\oldcontentsline\contentsline
\gdef\contentsline#1#2#3#4{\oldcontentsline{#1}{#2}{#3}}
\global\let\oldnewlabel\newlabel
\gdef\newlabel#1#2{\newlabelxx{#1}#2}
\gdef\newlabelxx#1#2#3#4#5#6{\oldnewlabel{#1}{{#2}{#3}}}
\AtEndDocument{\ifx\hyper@anchor\@undefined
\let\contentsline\oldcontentsline
\let\newlabel\oldnewlabel
\fi}
\fi}
\global\let\hyper@last\relax 
\gdef\HyperFirstAtBeginDocument#1{#1}
\providecommand\HyField@AuxAddToFields[1]{}
\providecommand\HyField@AuxAddToCoFields[2]{}
\@writefile{toc}{\beamer@endinputifotherversion {3.33pt}}
\@writefile{nav}{\beamer@endinputifotherversion {3.33pt}}
\select@language{italian}
\@writefile{toc}{\select@language{italian}}
\@writefile{lof}{\select@language{italian}}
\@writefile{lot}{\select@language{italian}}
\select@language{italian}
\@writefile{toc}{\select@language{italian}}
\@writefile{lof}{\select@language{italian}}
\@writefile{lot}{\select@language{italian}}
\@writefile{nav}{\headcommand {\slideentry {0}{0}{1}{1/1}{}{0}}}
\@writefile{nav}{\headcommand {\beamer@framepages {1}{1}}}
\@writefile{nav}{\headcommand {\sectionentry {1}{Introduzione}{2}{Introduzione}{0}}}
\@writefile{nav}{\headcommand {\beamer@sectionpages {1}{1}}}
\@writefile{nav}{\headcommand {\beamer@subsectionpages {1}{1}}}
\@writefile{nav}{\headcommand {\slideentry {1}{0}{2}{2/3}{}{0}}}
\@writefile{nav}{\headcommand {\beamer@framepages {2}{3}}}
\@writefile{nav}{\headcommand {\slideentry {1}{0}{3}{4/5}{}{0}}}
\@writefile{nav}{\headcommand {\beamer@framepages {4}{5}}}
\@writefile{nav}{\headcommand {\slideentry {1}{0}{4}{6/7}{}{0}}}
\@writefile{nav}{\headcommand {\beamer@framepages {6}{7}}}
\@writefile{nav}{\headcommand {\slideentry {1}{0}{5}{8/10}{}{0}}}
\@writefile{nav}{\headcommand {\beamer@framepages {8}{10}}}
\@writefile{nav}{\headcommand {\slideentry {1}{0}{6}{11/11}{}{0}}}
\@writefile{nav}{\headcommand {\beamer@framepages {11}{11}}}
\@writefile{nav}{\headcommand {\slideentry {1}{0}{7}{12/12}{}{0}}}
\@writefile{nav}{\headcommand {\beamer@framepages {12}{12}}}
\@writefile{toc}{\beamer@sectionintoc {2}{Domini}{13}{0}{1}}
\@writefile{nav}{\headcommand {\sectionentry {2}{Domini}{13}{Domini}{0}}}
\@writefile{nav}{\headcommand {\beamer@sectionpages {2}{12}}}
\@writefile{nav}{\headcommand {\beamer@subsectionpages {2}{12}}}
\@writefile{toc}{\beamer@subsectionintoc {2}{1}{Definizione}{13}{0}{1}}
\@writefile{nav}{\headcommand {\beamer@subsectionentry {0}{2}{1}{13}{Definizione}}\headcommand {\beamer@subsectionpages {13}{12}}}
\@writefile{nav}{\headcommand {\slideentry {2}{1}{1}{13/14}{Definizione}{0}}}
\@writefile{nav}{\headcommand {\beamer@framepages {13}{14}}}
\@writefile{nav}{\headcommand {\slideentry {2}{1}{2}{15/15}{Definizione}{0}}}
\@writefile{nav}{\headcommand {\beamer@framepages {15}{15}}}
\@writefile{nav}{\headcommand {\slideentry {2}{1}{3}{16/17}{Definizione}{0}}}
\@writefile{nav}{\headcommand {\beamer@framepages {16}{17}}}
\@writefile{nav}{\headcommand {\slideentry {2}{1}{4}{18/19}{Definizione}{0}}}
\@writefile{nav}{\headcommand {\beamer@framepages {18}{19}}}
\@writefile{nav}{\headcommand {\slideentry {2}{1}{5}{20/20}{Definizione}{0}}}
\@writefile{nav}{\headcommand {\beamer@framepages {20}{20}}}
\@writefile{toc}{\beamer@subsectionintoc {2}{2}{Topologia}{21}{0}{1}}
\@writefile{nav}{\headcommand {\beamer@subsectionentry {0}{2}{2}{21}{Topologia}}\headcommand {\beamer@subsectionpages {13}{20}}}
\@writefile{nav}{\headcommand {\slideentry {2}{2}{1}{21/22}{Topologia}{0}}}
\@writefile{nav}{\headcommand {\beamer@framepages {21}{22}}}
\@writefile{toc}{\beamer@subsectionintoc {2}{3}{Sobriet\IeC {\`a}}{23}{0}{1}}
\@writefile{nav}{\headcommand {\beamer@subsectionentry {0}{2}{3}{23}{Sobriet\IeC {\`a}}}\headcommand {\beamer@subsectionpages {21}{22}}}
\@writefile{nav}{\headcommand {\slideentry {2}{3}{1}{23/25}{Sobriet\IeC {\`a}}{0}}}
\@writefile{nav}{\headcommand {\beamer@framepages {23}{25}}}
\@writefile{toc}{\beamer@sectionintoc {3}{Spazi polacchi}{26}{0}{2}}
\@writefile{nav}{\headcommand {\sectionentry {3}{Spazi polacchi}{26}{Spazi polacchi}{0}}}
\@writefile{nav}{\headcommand {\beamer@sectionpages {13}{25}}}
\@writefile{nav}{\headcommand {\beamer@subsectionpages {23}{25}}}
\@writefile{toc}{\beamer@subsectionintoc {3}{1}{Definizione}{26}{0}{2}}
\@writefile{nav}{\headcommand {\beamer@subsectionentry {0}{3}{1}{26}{Definizione}}\headcommand {\beamer@subsectionpages {26}{25}}}
\@writefile{nav}{\headcommand {\slideentry {3}{1}{1}{26/27}{Definizione}{0}}}
\@writefile{nav}{\headcommand {\beamer@framepages {26}{27}}}
\@writefile{nav}{\headcommand {\slideentry {3}{1}{2}{28/32}{Definizione}{0}}}
\@writefile{nav}{\headcommand {\beamer@framepages {28}{32}}}
\@writefile{toc}{\beamer@subsectionintoc {3}{2}{Sobriet\IeC {\`a}}{33}{0}{2}}
\@writefile{nav}{\headcommand {\beamer@subsectionentry {0}{3}{2}{33}{Sobriet\IeC {\`a}}}\headcommand {\beamer@subsectionpages {26}{32}}}
\@writefile{nav}{\headcommand {\slideentry {3}{2}{1}{33/37}{Sobriet\IeC {\`a}}{0}}}
\@writefile{nav}{\headcommand {\beamer@framepages {33}{37}}}
\@writefile{toc}{\beamer@subsectionintoc {3}{3}{Gerarchia boreliana}{38}{0}{2}}
\@writefile{nav}{\headcommand {\beamer@subsectionentry {0}{3}{3}{38}{Gerarchia boreliana}}\headcommand {\beamer@subsectionpages {33}{37}}}
\@writefile{nav}{\headcommand {\slideentry {3}{3}{1}{38/40}{Gerarchia boreliana}{0}}}
\@writefile{nav}{\headcommand {\beamer@framepages {38}{40}}}
\@writefile{toc}{\beamer@sectionintoc {4}{Spazi quasi-polacchi}{41}{0}{3}}
\@writefile{nav}{\headcommand {\sectionentry {4}{Spazi quasi-polacchi}{41}{Spazi quasi-polacchi}{0}}}
\@writefile{nav}{\headcommand {\beamer@sectionpages {26}{40}}}
\@writefile{nav}{\headcommand {\beamer@subsectionpages {38}{40}}}
\@writefile{toc}{\beamer@subsectionintoc {4}{1}{Gerarchia generalizzata}{41}{0}{3}}
\@writefile{nav}{\headcommand {\beamer@subsectionentry {0}{4}{1}{41}{Gerarchia generalizzata}}\headcommand {\beamer@subsectionpages {41}{40}}}
\@writefile{nav}{\headcommand {\slideentry {4}{1}{1}{41/43}{Gerarchia generalizzata}{0}}}
\@writefile{nav}{\headcommand {\beamer@framepages {41}{43}}}
\@writefile{nav}{\headcommand {\slideentry {4}{1}{2}{44/44}{Gerarchia generalizzata}{0}}}
\@writefile{nav}{\headcommand {\beamer@framepages {44}{44}}}
\@writefile{toc}{\beamer@subsectionintoc {4}{2}{Gli spazi polacchi}{45}{0}{3}}
\@writefile{nav}{\headcommand {\beamer@subsectionentry {0}{4}{2}{45}{Gli spazi polacchi}}\headcommand {\beamer@subsectionpages {41}{44}}}
\@writefile{nav}{\headcommand {\slideentry {4}{2}{1}{45/46}{Gli spazi polacchi}{0}}}
\@writefile{nav}{\headcommand {\beamer@framepages {45}{46}}}
\@writefile{toc}{\beamer@subsectionintoc {4}{3}{I domini $\omega $-continui}{47}{0}{3}}
\@writefile{nav}{\headcommand {\beamer@subsectionentry {0}{4}{3}{47}{I domini $\omega $-continui}}\headcommand {\beamer@subsectionpages {45}{46}}}
\@writefile{nav}{\headcommand {\slideentry {4}{3}{1}{47/51}{I domini $\omega $-continui}{0}}}
\@writefile{nav}{\headcommand {\beamer@framepages {47}{51}}}
\@writefile{nav}{\headcommand {\sectionentry {5}{Conclusioni}{52}{Conclusioni}{0}}}
\@writefile{nav}{\headcommand {\beamer@sectionpages {41}{51}}}
\@writefile{nav}{\headcommand {\beamer@subsectionpages {47}{51}}}
\@writefile{nav}{\headcommand {\slideentry {5}{0}{2}{52/52}{}{0}}}
\@writefile{nav}{\headcommand {\beamer@framepages {52}{52}}}
\@writefile{nav}{\headcommand {\slideentry {5}{0}{3}{53/53}{}{0}}}
\@writefile{nav}{\headcommand {\beamer@framepages {53}{53}}}
\@writefile{nav}{\headcommand {\slideentry {5}{0}{4}{54/54}{}{0}}}
\@writefile{nav}{\headcommand {\beamer@framepages {54}{54}}}
\@writefile{nav}{\headcommand {\slideentry {5}{0}{5}{55/55}{}{0}}}
\@writefile{nav}{\headcommand {\beamer@framepages {55}{55}}}
\@writefile{nav}{\headcommand {\slideentry {5}{0}{6}{56/56}{}{0}}}
\@writefile{nav}{\headcommand {\beamer@framepages {56}{56}}}
\@writefile{nav}{\headcommand {\beamer@partpages {1}{57}}}
\@writefile{nav}{\headcommand {\beamer@subsectionpages {52}{57}}}
\@writefile{nav}{\headcommand {\beamer@sectionpages {52}{57}}}
\@writefile{nav}{\headcommand {\beamer@documentpages {57}}}
\@writefile{nav}{\headcommand {\def \inserttotalframenumber {28}}}
\@writefile{nav}{\headcommand {\slideentry {5}{0}{7}{57/57}{}{0}}}
\@writefile{nav}{\headcommand {\beamer@framepages {57}{57}}}
