\relax 
\providecommand\hyper@newdestlabel[2]{}
\providecommand\HyperFirstAtBeginDocument{\AtBeginDocument}
\HyperFirstAtBeginDocument{\ifx\hyper@anchor\@undefined
\global\let\oldcontentsline\contentsline
\gdef\contentsline#1#2#3#4{\oldcontentsline{#1}{#2}{#3}}
\global\let\oldnewlabel\newlabel
\gdef\newlabel#1#2{\newlabelxx{#1}#2}
\gdef\newlabelxx#1#2#3#4#5#6{\oldnewlabel{#1}{{#2}{#3}}}
\AtEndDocument{\ifx\hyper@anchor\@undefined
\let\contentsline\oldcontentsline
\let\newlabel\oldnewlabel
\fi}
\fi}
\global\let\hyper@last\relax 
\gdef\HyperFirstAtBeginDocument#1{#1}
\providecommand\HyField@AuxAddToFields[1]{}
\providecommand\HyField@AuxAddToCoFields[2]{}
\@writefile{toc}{\beamer@endinputifotherversion {3.33pt}}
\@writefile{nav}{\beamer@endinputifotherversion {3.33pt}}
\select@language{italian}
\@writefile{toc}{\select@language{italian}}
\@writefile{lof}{\select@language{italian}}
\@writefile{lot}{\select@language{italian}}
\select@language{italian}
\@writefile{toc}{\select@language{italian}}
\@writefile{lof}{\select@language{italian}}
\@writefile{lot}{\select@language{italian}}
\@writefile{nav}{\headcommand {\slideentry {0}{0}{1}{1/1}{}{0}}}
\@writefile{nav}{\headcommand {\beamer@framepages {1}{1}}}
\@writefile{nav}{\headcommand {\sectionentry {1}{Un po' di storia}{2}{Un po' di storia}{0}}}
\@writefile{nav}{\headcommand {\beamer@sectionpages {1}{1}}}
\@writefile{nav}{\headcommand {\beamer@subsectionpages {1}{1}}}
\@writefile{nav}{\headcommand {\slideentry {1}{0}{2}{2/5}{}{0}}}
\@writefile{nav}{\headcommand {\beamer@framepages {2}{5}}}
\@writefile{nav}{\headcommand {\slideentry {1}{0}{3}{6/6}{}{0}}}
\@writefile{nav}{\headcommand {\beamer@framepages {6}{6}}}
\@writefile{toc}{\beamer@sectionintoc {2}{Nozioni preliminari}{7}{0}{1}}
\@writefile{nav}{\headcommand {\sectionentry {2}{Nozioni preliminari}{7}{Nozioni preliminari}{0}}}
\@writefile{nav}{\headcommand {\beamer@sectionpages {2}{6}}}
\@writefile{nav}{\headcommand {\beamer@subsectionpages {2}{6}}}
\@writefile{toc}{\beamer@subsectionintoc {2}{1}{Topologie e metriche}{7}{0}{1}}
\@writefile{nav}{\headcommand {\beamer@subsectionentry {0}{2}{1}{7}{Topologie e metriche}}\headcommand {\beamer@subsectionpages {7}{6}}}
\@writefile{nav}{\headcommand {\slideentry {2}{1}{1}{7/7}{Topologie e metriche}{0}}}
\@writefile{nav}{\headcommand {\beamer@framepages {7}{7}}}
\@writefile{nav}{\headcommand {\slideentry {2}{1}{2}{8/8}{Topologie e metriche}{0}}}
\@writefile{nav}{\headcommand {\beamer@framepages {8}{8}}}
\@writefile{nav}{\headcommand {\slideentry {2}{1}{3}{9/9}{Topologie e metriche}{0}}}
\@writefile{nav}{\headcommand {\beamer@framepages {9}{9}}}
\@writefile{nav}{\headcommand {\slideentry {2}{1}{4}{10/10}{Topologie e metriche}{0}}}
\@writefile{nav}{\headcommand {\beamer@framepages {10}{10}}}
\@writefile{toc}{\beamer@subsectionintoc {2}{2}{Alberi e ordini parziali}{11}{0}{1}}
\@writefile{nav}{\headcommand {\beamer@subsectionentry {0}{2}{2}{11}{Alberi e ordini parziali}}\headcommand {\beamer@subsectionpages {7}{10}}}
\@writefile{nav}{\headcommand {\slideentry {2}{2}{1}{11/11}{Alberi e ordini parziali}{0}}}
\@writefile{nav}{\headcommand {\beamer@framepages {11}{11}}}
\@writefile{nav}{\headcommand {\slideentry {2}{2}{2}{12/12}{Alberi e ordini parziali}{0}}}
\@writefile{nav}{\headcommand {\beamer@framepages {12}{12}}}
\@writefile{toc}{\beamer@sectionintoc {3}{Teorie gi\IeC {\`a} sviluppate}{13}{0}{2}}
\@writefile{nav}{\headcommand {\sectionentry {3}{Teorie gi\IeC {\`a} sviluppate}{13}{Teorie gi\IeC {\`a} sviluppate}{0}}}
\@writefile{nav}{\headcommand {\beamer@sectionpages {7}{12}}}
\@writefile{nav}{\headcommand {\beamer@subsectionpages {11}{12}}}
\@writefile{toc}{\beamer@subsectionintoc {3}{1}{I domini}{13}{0}{2}}
\@writefile{nav}{\headcommand {\beamer@subsectionentry {0}{3}{1}{13}{I domini}}\headcommand {\beamer@subsectionpages {13}{12}}}
\@writefile{nav}{\headcommand {\slideentry {3}{1}{1}{13/14}{I domini}{0}}}
\@writefile{nav}{\headcommand {\beamer@framepages {13}{14}}}
\@writefile{nav}{\headcommand {\slideentry {3}{1}{2}{15/17}{I domini}{0}}}
\@writefile{nav}{\headcommand {\beamer@framepages {15}{17}}}
\@writefile{nav}{\headcommand {\slideentry {3}{1}{3}{18/19}{I domini}{0}}}
\@writefile{nav}{\headcommand {\beamer@framepages {18}{19}}}
\@writefile{nav}{\headcommand {\slideentry {3}{1}{4}{20/22}{I domini}{0}}}
\@writefile{nav}{\headcommand {\beamer@framepages {20}{22}}}
\@writefile{nav}{\headcommand {\slideentry {3}{1}{5}{23/25}{I domini}{0}}}
\@writefile{nav}{\headcommand {\beamer@framepages {23}{25}}}
\@writefile{nav}{\headcommand {\slideentry {3}{1}{6}{26/29}{I domini}{0}}}
\@writefile{nav}{\headcommand {\beamer@framepages {26}{29}}}
\@writefile{toc}{\beamer@subsectionintoc {3}{2}{Gli spazi polacchi}{30}{0}{2}}
\@writefile{nav}{\headcommand {\beamer@subsectionentry {0}{3}{2}{30}{Gli spazi polacchi}}\headcommand {\beamer@subsectionpages {13}{29}}}
\@writefile{nav}{\headcommand {\slideentry {3}{2}{1}{30/32}{Gli spazi polacchi}{0}}}
\@writefile{nav}{\headcommand {\beamer@framepages {30}{32}}}
\@writefile{nav}{\headcommand {\slideentry {3}{2}{2}{33/35}{Gli spazi polacchi}{0}}}
\@writefile{nav}{\headcommand {\beamer@framepages {33}{35}}}
\@writefile{nav}{\headcommand {\slideentry {3}{2}{3}{36/41}{Gli spazi polacchi}{0}}}
\@writefile{nav}{\headcommand {\beamer@framepages {36}{41}}}
\@writefile{nav}{\headcommand {\slideentry {3}{2}{4}{42/46}{Gli spazi polacchi}{0}}}
\@writefile{nav}{\headcommand {\beamer@framepages {42}{46}}}
\@writefile{nav}{\headcommand {\slideentry {3}{2}{5}{47/49}{Gli spazi polacchi}{0}}}
\@writefile{nav}{\headcommand {\beamer@framepages {47}{49}}}
\@writefile{nav}{\headcommand {\slideentry {3}{2}{6}{50/50}{Gli spazi polacchi}{0}}}
\@writefile{nav}{\headcommand {\beamer@framepages {50}{50}}}
\@writefile{toc}{\beamer@sectionintoc {4}{La novit\IeC {\`a}: i quasi-polacchi.}{51}{0}{3}}
\@writefile{nav}{\headcommand {\sectionentry {4}{La novit\IeC {\`a}: i quasi-polacchi.}{51}{La novit\IeC {\`a}: i quasi-polacchi.}{0}}}
\@writefile{nav}{\headcommand {\beamer@sectionpages {13}{50}}}
\@writefile{nav}{\headcommand {\beamer@subsectionpages {30}{50}}}
\@writefile{toc}{\beamer@subsectionintoc {4}{1}{La quasi-metrica}{51}{0}{3}}
\@writefile{nav}{\headcommand {\beamer@subsectionentry {0}{4}{1}{51}{La quasi-metrica}}\headcommand {\beamer@subsectionpages {51}{50}}}
\@writefile{nav}{\headcommand {\slideentry {4}{1}{1}{51/51}{La quasi-metrica}{0}}}
\@writefile{nav}{\headcommand {\beamer@framepages {51}{51}}}
\@writefile{toc}{\beamer@subsectionintoc {4}{2}{Una ``nuova'' gerarchia}{52}{0}{3}}
\@writefile{nav}{\headcommand {\beamer@subsectionentry {0}{4}{2}{52}{Una ``nuova'' gerarchia}}\headcommand {\beamer@subsectionpages {51}{51}}}
\@writefile{nav}{\headcommand {\slideentry {4}{2}{1}{52/52}{Una ``nuova'' gerarchia}{0}}}
\@writefile{nav}{\headcommand {\beamer@framepages {52}{52}}}
\@writefile{toc}{\beamer@subsectionintoc {4}{3}{(I sottospazi quasi-polacchi)}{53}{0}{3}}
\@writefile{nav}{\headcommand {\beamer@subsectionentry {0}{4}{3}{53}{(I sottospazi quasi-polacchi)}}\headcommand {\beamer@subsectionpages {52}{52}}}
\@writefile{nav}{\headcommand {\slideentry {4}{3}{1}{53/53}{(I sottospazi quasi-polacchi)}{0}}}
\@writefile{nav}{\headcommand {\beamer@framepages {53}{53}}}
\@writefile{toc}{\beamer@subsectionintoc {4}{4}{Generalizzazione polacchi e domini}{54}{0}{3}}
\@writefile{nav}{\headcommand {\beamer@subsectionentry {0}{4}{4}{54}{Generalizzazione polacchi e domini}}\headcommand {\beamer@subsectionpages {53}{53}}}
\@writefile{nav}{\headcommand {\slideentry {4}{4}{1}{54/54}{Generalizzazione polacchi e domini}{0}}}
\@writefile{nav}{\headcommand {\beamer@framepages {54}{54}}}
\@writefile{nav}{\headcommand {\sectionentry {5}{Quindi e inoltre\dots  }{55}{Quindi e inoltre\dots  }{0}}}
\@writefile{nav}{\headcommand {\beamer@sectionpages {51}{54}}}
\@writefile{nav}{\headcommand {\beamer@subsectionpages {54}{54}}}
\@writefile{nav}{\headcommand {\slideentry {5}{0}{2}{55/55}{}{0}}}
\@writefile{nav}{\headcommand {\beamer@framepages {55}{55}}}
\@writefile{nav}{\headcommand {\slideentry {5}{0}{3}{56/56}{}{0}}}
\@writefile{nav}{\headcommand {\beamer@framepages {56}{56}}}
\@writefile{nav}{\headcommand {\partentry {Appendice}{1}}}
\@writefile{nav}{\headcommand {\beamer@partpages {1}{56}}}
\@writefile{nav}{\headcommand {\beamer@sectionpages {55}{56}}}
\@writefile{nav}{\headcommand {\beamer@subsectionpages {55}{56}}}
\@writefile{nav}{\headcommand {\beamer@appendixpages {57}}}
\@writefile{toc}{\beamer@sectionintoc {6}{ciccio pasticcio}{57}{1}{4}}
\@writefile{nav}{\headcommand {\sectionentry {6}{ciccio pasticcio}{57}{ciccio pasticcio}{1}}}
\@writefile{nav}{\headcommand {\beamer@sectionpages {57}{56}}}
\@writefile{nav}{\headcommand {\beamer@subsectionpages {57}{56}}}
\@writefile{toc}{\beamer@subsectionintoc {6}{1}{mandi}{57}{1}{4}}
\@writefile{nav}{\headcommand {\beamer@subsectionentry {1}{6}{1}{57}{mandi}}\headcommand {\beamer@subsectionpages {57}{56}}}
\@writefile{nav}{\headcommand {\slideentry {6}{1}{1}{57/57}{mandi}{1}}}
\@writefile{nav}{\headcommand {\beamer@framepages {57}{57}}}
\@writefile{nav}{\headcommand {\beamer@partpages {57}{57}}}
\@writefile{nav}{\headcommand {\beamer@subsectionpages {57}{57}}}
\@writefile{nav}{\headcommand {\beamer@sectionpages {57}{57}}}
\@writefile{nav}{\headcommand {\beamer@documentpages {57}}}
\@writefile{nav}{\headcommand {\def \inserttotalframenumber {28}}}
